{
    "message": "Argument 1 passed to ElegantMedia\\SimpleRepository\\Search\\SearchFilter::setPerPage() must be of the type int, null given, called in \/home\/dev\/office_works\/backend_training_api\/app\/Http\/Controllers\/API\/V1\/ArticlesAPIController.php on line 35",
    "exception": "TypeError",
    "file": "\/home\/dev\/office_works\/backend_training_api\/vendor\/elegantmedia\/laravel-simple-repository\/src\/Search\/SearchFilter.php",
    "line": 77,
    "trace": [
        {
            "file": "\/home\/dev\/office_works\/backend_training_api\/app\/Http\/Controllers\/API\/V1\/ArticlesAPIController.php",
            "line": 35,
            "function": "setPerPage",
            "class": "ElegantMedia\\SimpleRepository\\Search\\SearchFilter",
            "type": "->"
        },
        {
            "file": "\/home\/dev\/office_works\/backend_training_api\/vendor\/laravel\/framework\/src\/Illuminate\/Routing\/Controller.php",
            "line": 54,
            "function": "index",
            "class": "App\\Http\\Controllers\\API\\V1\\ArticlesAPIController",
            "type": "->"
        },
        {
            "file": "\/home\/dev\/office_works\/backend_training_api\/vendor\/laravel\/framework\/src\/Illuminate\/Routing\/ControllerDispatcher.php",
            "line": 45,
            "function": "callAction",
            "class": "Illuminate\\Routing\\Controller",
            "type": "->"
        },
        {
            "file": "\/home\/dev\/office_works\/backend_training_api\/vendor\/laravel\/framework\/src\/Illuminate\/Routing\/Route.php",
            "line": 254,
            "function": "dispatch",
            "class": "Illuminate\\Routing\\ControllerDispatcher",
            "type": "->"
        },
        {
            "file": "\/home\/dev\/office_works\/backend_training_api\/vendor\/laravel\/framework\/src\/Illuminate\/Routing\/Route.php",
            "line": 197,
            "function": "runController",
            "class": "Illuminate\\Routing\\Route",
            "type": "->"
        },
        {
            "file": "\/home\/dev\/office_works\/backend_training_api\/vendor\/laravel\/framework\/src\/Illuminate\/Routing\/Router.php",
            "line": 695,
            "function": "run",
            "class": "Illuminate\\Routing\\Route",
            "type": "->"
        },
        {
            "file": "\/home\/dev\/office_works\/backend_training_api\/vendor\/laravel\/framework\/src\/Illuminate\/Pipeline\/Pipeline.php",
            "line": 128,
            "function": "Illuminate\\Routing\\{closure}",
            "class": "Illuminate\\Routing\\Router",
            "type": "->"
        },
        {
            "file": "\/home\/dev\/office_works\/backend_training_api\/vendor\/emedia\/oxygen\/src\/Http\/Middleware\/ApiAuthenticate.php",
            "line": 43,
            "function": "Illuminate\\Pipeline\\{closure}",
            "class": "Illuminate\\Pipeline\\Pipeline",
            "type": "->"
        },
        {
            "file": "\/home\/dev\/office_works\/backend_training_api\/vendor\/laravel\/framework\/src\/Illuminate\/Pipeline\/Pipeline.php",
            "line": 167,
            "function": "handle",
            "class": "EMedia\\Oxygen\\Http\\Middleware\\ApiAuthenticate",
            "type": "->"
        },
        {
            "file": "\/home\/dev\/office_works\/backend_training_api\/vendor\/laravel\/framework\/src\/Illuminate\/Routing\/Middleware\/SubstituteBindings.php",
            "line": 50,
            "function": "Illuminate\\Pipeline\\{closure}",
            "class": "Illuminate\\Pipeline\\Pipeline",
            "type": "->"
        },
        {
            "file": "\/home\/dev\/office_works\/backend_training_api\/vendor\/laravel\/framework\/src\/Illuminate\/Pipeline\/Pipeline.php",
            "line": 167,
            "function": "handle",
            "class": "Illuminate\\Routing\\Middleware\\SubstituteBindings",
            "type": "->"
        },
        {
            "file": "\/home\/dev\/office_works\/backend_training_api\/vendor\/emedia\/oxygen\/src\/Http\/Middleware\/ParseNonPostFormData.php",
            "line": 20,
            "function": "Illuminate\\Pipeline\\{closure}",
            "class": "Illuminate\\Pipeline\\Pipeline",
            "type": "->"
        },
        {
            "file": "\/home\/dev\/office_works\/backend_training_api\/vendor\/laravel\/framework\/src\/Illuminate\/Pipeline\/Pipeline.php",
            "line": 167,
            "function": "handle",
            "class": "EMedia\\Oxygen\\Http\\Middleware\\ParseNonPostFormData",
            "type": "->"
        },
        {
            "file": "\/home\/dev\/office_works\/backend_training_api\/vendor\/laravel\/framework\/src\/Illuminate\/Routing\/Middleware\/ThrottleRequests.php",
            "line": 127,
            "function": "Illuminate\\Pipeline\\{closure}",
            "class": "Illuminate\\Pipeline\\Pipeline",
            "type": "->"
        },
        {
            "file": "\/home\/dev\/office_works\/backend_training_api\/vendor\/laravel\/framework\/src\/Illuminate\/Routing\/Middleware\/ThrottleRequests.php",
            "line": 103,
            "function": "handleRequest",
            "class": "Illuminate\\Routing\\Middleware\\ThrottleRequests",
            "type": "->"
        },
        {
            "file": "\/home\/dev\/office_works\/backend_training_api\/vendor\/laravel\/framework\/src\/Illuminate\/Routing\/Middleware\/ThrottleRequests.php",
            "line": 55,
            "function": "handleRequestUsingNamedLimiter",
            "class": "Illuminate\\Routing\\Middleware\\ThrottleRequests",
            "type": "->"
        },
        {
            "file": "\/home\/dev\/office_works\/backend_training_api\/vendor\/laravel\/framework\/src\/Illuminate\/Pipeline\/Pipeline.php",
            "line": 167,
            "function": "handle",
            "class": "Illuminate\\Routing\\Middleware\\ThrottleRequests",
            "type": "->"
        },
        {
            "file": "\/home\/dev\/office_works\/backend_training_api\/vendor\/laravel\/framework\/src\/Illuminate\/Pipeline\/Pipeline.php",
            "line": 103,
            "function": "Illuminate\\Pipeline\\{closure}",
            "class": "Illuminate\\Pipeline\\Pipeline",
            "type": "->"
        },
        {
            "file": "\/home\/dev\/office_works\/backend_training_api\/vendor\/laravel\/framework\/src\/Illuminate\/Routing\/Router.php",
            "line": 697,
            "function": "then",
            "class": "Illuminate\\Pipeline\\Pipeline",
            "type": "->"
        },
        {
            "file": "\/home\/dev\/office_works\/backend_training_api\/vendor\/laravel\/framework\/src\/Illuminate\/Routing\/Router.php",
            "line": 672,
            "function": "runRouteWithinStack",
            "class": "Illuminate\\Routing\\Router",
            "type": "->"
        },
        {
            "file": "\/home\/dev\/office_works\/backend_training_api\/vendor\/laravel\/framework\/src\/Illuminate\/Routing\/Router.php",
            "line": 636,
            "function": "runRoute",
            "class": "Illuminate\\Routing\\Router",
            "type": "->"
        },
        {
            "file": "\/home\/dev\/office_works\/backend_training_api\/vendor\/laravel\/framework\/src\/Illuminate\/Routing\/Router.php",
            "line": 625,
            "function": "dispatchToRoute",
            "class": "Illuminate\\Routing\\Router",
            "type": "->"
        },
        {
            "file": "\/home\/dev\/office_works\/backend_training_api\/vendor\/laravel\/framework\/src\/Illuminate\/Foundation\/Http\/Kernel.php",
            "line": 166,
            "function": "dispatch",
            "class": "Illuminate\\Routing\\Router",
            "type": "->"
        },
        {
            "file": "\/home\/dev\/office_works\/backend_training_api\/vendor\/laravel\/framework\/src\/Illuminate\/Pipeline\/Pipeline.php",
            "line": 128,
            "function": "Illuminate\\Foundation\\Http\\{closure}",
            "class": "Illuminate\\Foundation\\Http\\Kernel",
            "type": "->"
        },
        {
            "file": "\/home\/dev\/office_works\/backend_training_api\/vendor\/barryvdh\/laravel-debugbar\/src\/Middleware\/InjectDebugbar.php",
            "line": 60,
            "function": "Illuminate\\Pipeline\\{closure}",
            "class": "Illuminate\\Pipeline\\Pipeline",
            "type": "->"
        },
        {
            "file": "\/home\/dev\/office_works\/backend_training_api\/vendor\/laravel\/framework\/src\/Illuminate\/Pipeline\/Pipeline.php",
            "line": 167,
            "function": "handle",
            "class": "Barryvdh\\Debugbar\\Middleware\\InjectDebugbar",
            "type": "->"
        },
        {
            "file": "\/home\/dev\/office_works\/backend_training_api\/vendor\/laravel\/framework\/src\/Illuminate\/Foundation\/Http\/Middleware\/TransformsRequest.php",
            "line": 21,
            "function": "Illuminate\\Pipeline\\{closure}",
            "class": "Illuminate\\Pipeline\\Pipeline",
            "type": "->"
        },
        {
            "file": "\/home\/dev\/office_works\/backend_training_api\/vendor\/laravel\/framework\/src\/Illuminate\/Foundation\/Http\/Middleware\/ConvertEmptyStringsToNull.php",
            "line": 31,
            "function": "handle",
            "class": "Illuminate\\Foundation\\Http\\Middleware\\TransformsRequest",
            "type": "->"
        },
        {
            "file": "\/home\/dev\/office_works\/backend_training_api\/vendor\/laravel\/framework\/src\/Illuminate\/Pipeline\/Pipeline.php",
            "line": 167,
            "function": "handle",
            "class": "Illuminate\\Foundation\\Http\\Middleware\\ConvertEmptyStringsToNull",
            "type": "->"
        },
        {
            "file": "\/home\/dev\/office_works\/backend_training_api\/vendor\/laravel\/framework\/src\/Illuminate\/Foundation\/Http\/Middleware\/TransformsRequest.php",
            "line": 21,
            "function": "Illuminate\\Pipeline\\{closure}",
            "class": "Illuminate\\Pipeline\\Pipeline",
            "type": "->"
        },
        {
            "file": "\/home\/dev\/office_works\/backend_training_api\/vendor\/laravel\/framework\/src\/Illuminate\/Foundation\/Http\/Middleware\/TrimStrings.php",
            "line": 40,
            "function": "handle",
            "class": "Illuminate\\Foundation\\Http\\Middleware\\TransformsRequest",
            "type": "->"
        },
        {
            "file": "\/home\/dev\/office_works\/backend_training_api\/vendor\/laravel\/framework\/src\/Illuminate\/Pipeline\/Pipeline.php",
            "line": 167,
            "function": "handle",
            "class": "Illuminate\\Foundation\\Http\\Middleware\\TrimStrings",
            "type": "->"
        },
        {
            "file": "\/home\/dev\/office_works\/backend_training_api\/vendor\/laravel\/framework\/src\/Illuminate\/Foundation\/Http\/Middleware\/ValidatePostSize.php",
            "line": 27,
            "function": "Illuminate\\Pipeline\\{closure}",
            "class": "Illuminate\\Pipeline\\Pipeline",
            "type": "->"
        },
        {
            "file": "\/home\/dev\/office_works\/backend_training_api\/vendor\/laravel\/framework\/src\/Illuminate\/Pipeline\/Pipeline.php",
            "line": 167,
            "function": "handle",
            "class": "Illuminate\\Foundation\\Http\\Middleware\\ValidatePostSize",
            "type": "->"
        },
        {
            "file": "\/home\/dev\/office_works\/backend_training_api\/vendor\/laravel\/framework\/src\/Illuminate\/Foundation\/Http\/Middleware\/PreventRequestsDuringMaintenance.php",
            "line": 86,
            "function": "Illuminate\\Pipeline\\{closure}",
            "class": "Illuminate\\Pipeline\\Pipeline",
            "type": "->"
        },
        {
            "file": "\/home\/dev\/office_works\/backend_training_api\/vendor\/laravel\/framework\/src\/Illuminate\/Pipeline\/Pipeline.php",
            "line": 167,
            "function": "handle",
            "class": "Illuminate\\Foundation\\Http\\Middleware\\PreventRequestsDuringMaintenance",
            "type": "->"
        },
        {
            "file": "\/home\/dev\/office_works\/backend_training_api\/vendor\/fruitcake\/laravel-cors\/src\/HandleCors.php",
            "line": 52,
            "function": "Illuminate\\Pipeline\\{closure}",
            "class": "Illuminate\\Pipeline\\Pipeline",
            "type": "->"
        },
        {
            "file": "\/home\/dev\/office_works\/backend_training_api\/vendor\/laravel\/framework\/src\/Illuminate\/Pipeline\/Pipeline.php",
            "line": 167,
            "function": "handle",
            "class": "Fruitcake\\Cors\\HandleCors",
            "type": "->"
        },
        {
            "file": "\/home\/dev\/office_works\/backend_training_api\/vendor\/fideloper\/proxy\/src\/TrustProxies.php",
            "line": 57,
            "function": "Illuminate\\Pipeline\\{closure}",
            "class": "Illuminate\\Pipeline\\Pipeline",
            "type": "->"
        },
        {
            "file": "\/home\/dev\/office_works\/backend_training_api\/vendor\/laravel\/framework\/src\/Illuminate\/Pipeline\/Pipeline.php",
            "line": 167,
            "function": "handle",
            "class": "Fideloper\\Proxy\\TrustProxies",
            "type": "->"
        },
        {
            "file": "\/home\/dev\/office_works\/backend_training_api\/vendor\/laravel\/framework\/src\/Illuminate\/Pipeline\/Pipeline.php",
            "line": 103,
            "function": "Illuminate\\Pipeline\\{closure}",
            "class": "Illuminate\\Pipeline\\Pipeline",
            "type": "->"
        },
        {
            "file": "\/home\/dev\/office_works\/backend_training_api\/vendor\/laravel\/framework\/src\/Illuminate\/Foundation\/Http\/Kernel.php",
            "line": 141,
            "function": "then",
            "class": "Illuminate\\Pipeline\\Pipeline",
            "type": "->"
        },
        {
            "file": "\/home\/dev\/office_works\/backend_training_api\/vendor\/laravel\/framework\/src\/Illuminate\/Foundation\/Http\/Kernel.php",
            "line": 110,
            "function": "sendRequestThroughRouter",
            "class": "Illuminate\\Foundation\\Http\\Kernel",
            "type": "->"
        },
        {
            "file": "\/home\/dev\/office_works\/backend_training_api\/vendor\/laravel\/framework\/src\/Illuminate\/Foundation\/Testing\/Concerns\/MakesHttpRequests.php",
            "line": 509,
            "function": "handle",
            "class": "Illuminate\\Foundation\\Http\\Kernel",
            "type": "->"
        },
        {
            "file": "\/home\/dev\/office_works\/backend_training_api\/vendor\/laravel\/framework\/src\/Illuminate\/Foundation\/Testing\/Concerns\/MakesHttpRequests.php",
            "line": 293,
            "function": "call",
            "class": "Illuminate\\Foundation\\Testing\\TestCase",
            "type": "->"
        },
        {
            "file": "\/home\/dev\/office_works\/backend_training_api\/tests\/Feature\/AutoGen\/API\/V1\/ArticlesAPISearchArticlesAPIAPITest.php",
            "line": 106,
            "function": "get",
            "class": "Illuminate\\Foundation\\Testing\\TestCase",
            "type": "->"
        },
        {
            "file": "\/home\/dev\/office_works\/backend_training_api\/vendor\/phpunit\/phpunit\/src\/Framework\/TestCase.php",
            "line": 1527,
            "function": "test_api_get_articles_data_types",
            "class": "Tests\\Feature\\AutoGen\\API\\V1\\ArticlesAPISearchArticlesAPIAPITest",
            "type": "->"
        },
        {
            "file": "\/home\/dev\/office_works\/backend_training_api\/vendor\/phpunit\/phpunit\/src\/Framework\/TestCase.php",
            "line": 1133,
            "function": "runTest",
            "class": "PHPUnit\\Framework\\TestCase",
            "type": "->"
        },
        {
            "file": "\/home\/dev\/office_works\/backend_training_api\/vendor\/phpunit\/phpunit\/src\/Framework\/TestResult.php",
            "line": 722,
            "function": "runBare",
            "class": "PHPUnit\\Framework\\TestCase",
            "type": "->"
        },
        {
            "file": "\/home\/dev\/office_works\/backend_training_api\/vendor\/phpunit\/phpunit\/src\/Framework\/TestCase.php",
            "line": 885,
            "function": "run",
            "class": "PHPUnit\\Framework\\TestResult",
            "type": "->"
        },
        {
            "file": "\/home\/dev\/office_works\/backend_training_api\/vendor\/phpunit\/phpunit\/src\/Framework\/TestSuite.php",
            "line": 677,
            "function": "run",
            "class": "PHPUnit\\Framework\\TestCase",
            "type": "->"
        },
        {
            "file": "\/home\/dev\/office_works\/backend_training_api\/vendor\/phpunit\/phpunit\/src\/Framework\/TestSuite.php",
            "line": 677,
            "function": "run",
            "class": "PHPUnit\\Framework\\TestSuite",
            "type": "->"
        },
        {
            "file": "\/home\/dev\/office_works\/backend_training_api\/vendor\/phpunit\/phpunit\/src\/Framework\/TestSuite.php",
            "line": 677,
            "function": "run",
            "class": "PHPUnit\\Framework\\TestSuite",
            "type": "->"
        },
        {
            "file": "\/home\/dev\/office_works\/backend_training_api\/vendor\/phpunit\/phpunit\/src\/TextUI\/TestRunner.php",
            "line": 670,
            "function": "run",
            "class": "PHPUnit\\Framework\\TestSuite",
            "type": "->"
        },
        {
            "file": "\/home\/dev\/office_works\/backend_training_api\/vendor\/phpunit\/phpunit\/src\/TextUI\/Command.php",
            "line": 143,
            "function": "run",
            "class": "PHPUnit\\TextUI\\TestRunner",
            "type": "->"
        },
        {
            "file": "\/home\/dev\/office_works\/backend_training_api\/vendor\/phpunit\/phpunit\/src\/TextUI\/Command.php",
            "line": 96,
            "function": "run",
            "class": "PHPUnit\\TextUI\\Command",
            "type": "->"
        },
        {
            "file": "\/home\/dev\/office_works\/backend_training_api\/vendor\/phpunit\/phpunit\/phpunit",
            "line": 92,
            "function": "main",
            "class": "PHPUnit\\TextUI\\Command",
            "type": "::"
        }
    ]
}