{
    "payload": {
        "id": 1,
        "created_at": "2021-07-20T10:14:07.000000Z",
        "updated_at": "2021-07-20T10:14:07.000000Z",
        "key": "ABOUT_US",
        "value": "About Us\n\n"
    },
    "message": "",
    "result": true
}